#######################################################
# Data file created by RNS
# ./RNS -r 0.00363736928421 -a 0.8 -u -t poly -k 100 -g 2.0 -s AU5_out.txt 
#
# column format: 1:rhoc 2:ec 3:rp_re 4:A_diff 5:Re 6:M0 7:M 8:W 9:T 10:J 11:beta 12:M_R 13:invPa 14:invPe 15:invtd 
#######################################################
3.6373692842099998e-03 4.9604148151814360e-03 8.0000000000000004e-01 1.0000000000000000e+00 8.1405448962570297e+00 1.9224988764920181e+00 1.7520297518441352e+00 4.8243976074806444e-01 2.2440362750561198e-02 1.2843670874604953e+00 4.6514331065427697e-02 2.1522266312292035e-01 1.1291565501662777e+00 1.1291565501662777e+00 5.4129077284331311e+02 
