#######################################################
# Data file created by RNS
# ./RNS_new -r 8.830e-4 -a 0.762 -d 1 -t poly -k 100 -g 2.0 -s A4_out.txt 
#
# column format: 1:rhoc 2:ec 3:rp_re 4:A_diff 5:Re 6:M0 7:M 8:W 9:T 10:J 11:beta 12:M_R 13:invPa 14:invPe 15:invtd 
#######################################################
8.8300000000000000e-04 9.6096889999999996e-04 7.6200000000000001e-01 1.0000000000000000e+00 1.1371578712285658e+01 1.5062481147306652e+00 1.4135140246733029e+00 1.6869776061513558e-01 1.1200983768567086e-02 1.0964253922870382e+00 6.6396754335825675e-02 1.2430235593815718e-01 1.0317672173152181e+00 3.9829282720345188e-01 1.0096395208815235e+03 
