#######################################################
# Data file created by RNS
# ./RNS_new -r 4.854e-4 -a 0.513 -d 1 -t poly -k 100 -g 2.0 -s A8_out.txt 
#
# column format: 1:rhoc 2:ec 3:rp_re 4:A_diff 5:Re 6:M0 7:M 8:W 9:T 10:J 11:beta 12:M_R 13:invPa 14:invPe 15:invtd 
#######################################################
4.8540000000000009e-04 5.0896131599999998e-04 5.1300000000000001e-01 1.0000000000000000e+00 1.5012118892068699e+01 1.5069410013230027e+00 1.4333525917741394e+00 1.3187544357452533e-01 2.0837910129000180e-02 1.9941215527560976e+00 1.5801205716683925e-01 9.5479698907222063e-02 1.0334997095731426e+00 4.2028934376948207e-01 1.5310815588368635e+03 
